Tidy Analyses in R: Palmer Penguins
…
The last line, pivot_longer(cols = everything()) converts the table from being very wide to a more manageable long table. To see the benefit of doing this, remove the last line and the pipe (%>%) at the end of the previous line, then re-run the code chunk.

If you want a nicely formatted table, pipe the result into kable() as we did earlier. Just copy/paste what we did!

Selecting Specific Columns and Rows

We don’t have to work with the entire dataset. We can select specific columns (using the select() function) or rows satisfying certain conditions (using the filter() function).

For example, we can select only the species, island, sex, and year columns.

penguins %>%
  select(species, island, sex, year)

# A tibble: 344 × 4
   species island    sex     year
   <fct>   <fct>     <fct>  <int>
 1 Adelie  Torgersen male    2007
 2 Adelie  Torgersen female  2007
 3 Adelie  Torgersen female  2007
 4 Adelie  Torgersen <NA>    2007
 5 Adelie  Torgersen female  2007
 6 Adelie  Torgersen male    2007
 7 Adelie  Torgersen female  2007
 8 Adelie  Torgersen male    2007
 9 Adelie  Torgersen <NA>    2007
10 Adelie  Torgersen <NA>    2007
# … with 334 more rows

We can also filter() the dataset to include only Chinstrap penguins.

penguins %>%
  select(species, island, sex, year) %>%
  filter(species == "Chinstrap")

# A tibble: 68 × 4
   species   island sex     year
   <fct>     <fct>  <fct>  <int>
 1 Chinstrap Dream  female  2007
 2 Chinstrap Dream  male    2007
 3 Chinstrap Dream  male    2007
 4 Chinstrap Dream  female  2007
 5 Chinstrap Dream  male    2007
 6 Chinstrap Dream  female  2007
 7 Chinstrap Dream  female  2007
 8 Chinstrap Dream  male    2007
 9 Chinstrap Dream  female  2007
10 Chinstrap Dream  male    2007
# … with 58 more rows
…
